module gitlab.com/fruitygo/gojuice

go 1.20

require (
	cloud.google.com/go/pubsub v1.33.0
	cloud.google.com/go/secretmanager v1.11.4
	firebase.google.com/go/v4 v4.13.0
	github.com/googleapis/gax-go/v2 v2.12.0
	go.mongodb.org/mongo-driver v1.13.1
	golang.org/x/oauth2 v0.15.0
	golang.org/x/text v0.14.0
	google.golang.org/api v0.154.0
	googlemaps.github.io/maps v1.7.0
)

require (
	cloud.google.com/go v0.111.0 // indirect
	cloud.google.com/go/compute v1.23.3 // indirect
	cloud.google.com/go/compute/metadata v0.2.3 // indirect
	cloud.google.com/go/firestore v1.14.0 // indirect
	cloud.google.com/go/iam v1.1.5 // indirect
	cloud.google.com/go/longrunning v0.5.4 // indirect
	cloud.google.com/go/storage v1.36.0 // indirect
	github.com/MicahParks/keyfunc v1.9.0 // indirect
	github.com/felixge/httpsnoop v1.0.4 // indirect
	github.com/go-logr/logr v1.3.0 // indirect
	github.com/go-logr/stdr v1.2.2 // indirect
	github.com/golang-jwt/jwt/v4 v4.5.0 // indirect
	github.com/golang/groupcache v0.0.0-20210331224755-41bb18bfe9da // indirect
	github.com/golang/protobuf v1.5.3 // indirect
	github.com/golang/snappy v0.0.4 // indirect
	github.com/google/s2a-go v0.1.7 // indirect
	github.com/google/uuid v1.5.0 // indirect
	github.com/googleapis/enterprise-certificate-proxy v0.3.2 // indirect
	github.com/klauspost/compress v1.13.6 // indirect
	github.com/montanaflynn/stats v0.0.0-20171201202039-1bf9dbcd8cbe // indirect
	github.com/xdg-go/pbkdf2 v1.0.0 // indirect
	github.com/xdg-go/scram v1.1.2 // indirect
	github.com/xdg-go/stringprep v1.0.4 // indirect
	github.com/youmark/pkcs8 v0.0.0-20181117223130-1be2e3e5546d // indirect
	go.opencensus.io v0.24.0 // indirect
	go.opentelemetry.io/contrib/instrumentation/google.golang.org/grpc/otelgrpc v0.46.1 // indirect
	go.opentelemetry.io/contrib/instrumentation/net/http/otelhttp v0.46.1 // indirect
	go.opentelemetry.io/otel v1.21.0 // indirect
	go.opentelemetry.io/otel/metric v1.21.0 // indirect
	go.opentelemetry.io/otel/trace v1.21.0 // indirect
	golang.org/x/crypto v0.17.0 // indirect
	golang.org/x/net v0.19.0 // indirect
	golang.org/x/sync v0.5.0 // indirect
	golang.org/x/sys v0.15.0 // indirect
	golang.org/x/time v0.5.0 // indirect
	golang.org/x/xerrors v0.0.0-20231012003039-104605ab7028 // indirect
	google.golang.org/appengine v1.6.8 // indirect
	google.golang.org/appengine/v2 v2.0.5 // indirect
	google.golang.org/genproto v0.0.0-20231212172506-995d672761c0 // indirect
	google.golang.org/genproto/googleapis/api v0.0.0-20231212172506-995d672761c0 // indirect
	google.golang.org/genproto/googleapis/rpc v0.0.0-20231212172506-995d672761c0 // indirect
	google.golang.org/grpc v1.60.0 // indirect
	google.golang.org/protobuf v1.31.0 // indirect
)
